{
        "embeds": [{

                 "title": "Application",
                 "color": 16711680,
                 "fields": [
                     {
                         "name": "Discord",
                         "value": discord_user
                     },
                     {
                         "name": "Trait",
                         "value": trait
                     },
                     {
                         "name": "Division",
                         "value": division
                     },
                     {
                         "name": "Dedication",
                         "value": dedication
                     },
                     {
                         "name": "Personality",
                         "value": personality
                     },
                     {
                         "name": "Country",
                         "value": country
                     },
                     {
                         "name": "Region",
                         "value": region
                     },
                     {
                         "name": "Timezone",
                         "value": timezone
                     },
                     {
                         "name": "Submitted Time",
                         "value": human
                     },
                     {
                         "name": "IP Address",
                         "value": ip
                     }
                 ]
        }]
    }